<?xml version="1.0" encoding="utf-8"?>
<!-- Generator: Adobe Illustrator 23.0.3, SVG Export Plug-In . SVG Version: 6.00 Build 0)  -->
<svg version="1.1" id="Calque_1" xmlns="http://www.w3.org/2000/svg" xmlns:xlink="http://www.w3.org/1999/xlink" x="0px" y="0px"
	 viewBox="0 0 628 208.1" style="enable-background:new 0 0 628 208.1;" xml:space="preserve">
<style type="text/css">
	.st0{fill:#020203;}
	.st1{fill:#0580A4;}
</style>
<g>
	<path class="st0" d="M240.2,173.6h45v-9.8c0-19.5-13.9-26.5-26-26.5c-12.1,0-26,7-26,26.5v17.8c0,19.5,13.9,26.5,26,26.5
		c11.3,0,24-5.9,25.7-22.3h-7.1c-1.6,9.8-8.8,15.6-18.6,15.6c-11.1,0-19-7.6-19-19.8V173.6L240.2,173.6z M240.2,163.8
		c0-12.2,7.9-19.8,19-19.8c11,0,19,7.6,19,19.8v3.1h-38V163.8L240.2,163.8z M348.6,158.5c-1-14.3-12.2-21.2-24.7-21.2
		c-12.1,0-23.6,6.3-23.6,18.5c0,10.6,6.8,16,16.3,18.1l15.2,3.4c8.3,1.7,11.5,6.4,11.5,12.7c0,7.7-8,11.4-17,11.4
		c-9,0-18.9-4.2-20.3-15.7h-7.1c1,16.1,13.8,22.4,27.3,22.4c14.6,0,24.1-6.3,24.1-18c0-11.5-5.6-17.3-18.4-20.1l-13-2.9
		c-8.4-2-11.7-5.2-11.7-11.4c0-8.4,8.3-11.8,16.5-11.8c9.4,0,16.8,5.2,17.7,14.6H348.6L348.6,158.5z M377.2,145.8h16.7v-6.7h-16.7
		v-15.3h-7v15.3h-9.6v6.7h9.6v47.5c0,8.7,2.8,13.5,14,13.5h9.6v-6.7h-9.6c-5.9,0-7.1-2-7.1-6.8V145.8L377.2,145.8z M452.4,165
		c-11.5,0.7-22.6,1.3-30.4,3.8c-10.5,3.1-14.7,10.5-14.7,19.4c0,10.9,7.9,19.9,22.6,19.9c10.4,0,18.2-3.3,22.6-9.6v8.3h6.9v-43
		c0-19.5-13.9-26.5-26-26.5c-11.3,0-24,5.9-25.7,22.3h7.1c1.6-9.8,8.8-15.6,18.6-15.6c11,0,19,7.6,19,19.8V165L452.4,165z
		 M452.4,181.6c0,11.9-8.9,19.8-21,19.8c-12.6,0-17.2-6.4-17.2-13.8c0-5.4,2.1-9.3,8.5-12.3c5.1-2.5,14.4-3.3,29.6-4.2V181.6
		L452.4,181.6z M489.5,145.8h16.7v-6.7h-16.7v-15.3h-7v15.3H473v6.7h9.6v47.5c0,8.7,2.8,13.5,14,13.5h9.6v-6.7h-9.6
		c-5.9,0-7.1-2-7.1-6.8V145.8L489.5,145.8z M527.6,173.6h45v-9.8c0-19.5-13.9-26.5-26-26.5c-12.1,0-26,7-26,26.5v17.8
		c0,19.5,13.9,26.5,26,26.5c11.3,0,24-5.9,25.7-22.3h-7.1c-1.6,9.8-8.8,15.6-18.6,15.6c-11.1,0-19-7.6-19-19.8V173.6L527.6,173.6z
		 M527.6,163.8c0-12.2,7.9-19.8,19-19.8c11,0,19,7.6,19,19.8v3.1h-38V163.8L527.6,163.8z"/>
	<g>
		<path class="st0" d="M277.1,50c-11.5,0.7-22.6,1.3-30.4,3.8C236.2,56.9,232,64.3,232,73.2c0,10.9,7.9,19.9,22.6,19.9
			c10.4,0,18.2-3.3,22.6-9.6v8.3h7v-43c0-19.5-13.9-26.5-26-26.5c-11.3,0-24,5.9-25.7,22.3h7.1c1.6-9.8,8.8-15.6,18.6-15.6
			c11,0,19,7.6,19,19.8V50L277.1,50z M277.1,66.6c0,11.9-8.9,19.8-21,19.8c-12.6,0-17.2-6.4-17.2-13.8c0-5.4,2.1-9.3,8.5-12.3
			c5.1-2.5,14.4-3.3,29.6-4.2V66.6L277.1,66.6z M310.9,0h-7v78.3c0,8.7,2.8,13.5,14,13.5h1.3v-6.7h-1.3c-5.9,0-7.1-2-7.1-6.8V0
			L310.9,0z M335.9,115.9h7V83.5c4.1,6.3,11.5,9.6,19,9.6c12.1,0,26-7,26-26.5V48.8c0-19.5-13.9-26.5-26-26.5c-7.5,0-15,3.3-19,9.6
			v-7.7h-7V115.9L335.9,115.9z M342.9,48.8c0-12.2,7.9-19.8,19-19.8c11,0,19,7.6,19,19.8v17.8c0,12.2-8,19.8-19,19.8
			c-11.1,0-19-7.6-19-19.8V48.8L342.9,48.8z M462.1,29.6V23h-2c-7.5,0-15,3.3-19,9.6v-8.4h-7v67.7h7V49.4c0-12.2,7.9-19.8,19-19.8
			H462.1L462.1,29.6z M480.3,58.6h45v-9.8c0-19.5-13.9-26.5-26-26.5c-12.1,0-26,7-26,26.5v17.8c0,19.5,13.9,26.5,26,26.5
			c11.3,0,24-5.9,25.7-22.3h-7.1c-1.6,9.8-8.8,15.6-18.6,15.6c-11.1,0-19-7.6-19-19.8V58.6L480.3,58.6z M480.3,48.8
			c0-12.2,7.9-19.8,19-19.8c11,0,19,7.6,19,19.8v3.1h-38V48.8L480.3,48.8z M585.9,50c-11.5,0.7-22.6,1.3-30.4,3.8
			c-10.5,3.1-14.7,10.5-14.7,19.4c0,10.9,7.9,19.9,22.6,19.9c10.4,0,18.2-3.3,22.6-9.6v8.3h7v-43c0-19.5-13.9-26.5-26-26.5
			c-11.3,0-24,5.9-25.7,22.3h7.1c1.6-9.8,8.8-15.6,18.6-15.6c11,0,19,7.6,19,19.8V50L585.9,50z M585.9,66.6c0,11.9-8.9,19.8-21,19.8
			c-12.6,0-17.2-6.4-17.2-13.8c0-5.4,2.1-9.3,8.5-12.3c5.1-2.5,14.4-3.3,29.6-4.2V66.6L585.9,66.6z M619.6,0h-7v78.3
			c0,8.7,2.8,13.5,14,13.5h1.3v-6.7h-1.3c-5.9,0-7.1-2-7.1-6.8V0L619.6,0z"/>
		<polygon class="st1" points="182.8,206.8 141.9,206.8 91.4,157.3 40.9,206.8 0,206.8 91.4,115.4 152.4,176.4 152.4,54.5 
			10.2,54.5 10.2,24 182.8,24 182.8,206.8 		"/>
	</g>
</g>
</svg>
